module EWallet

go 1.19

require (
	github.com/gin-gonic/gin v1.8.2
	github.com/google/uuid v1.3.0
	github.com/jackc/pgx/v5 v5.2.0
	github.com/jmoiron/sqlx v1.3.5
)

require (
	github.com/gin-contrib/sse v0.1.0 // indirect
	github.com/go-playground/locales v0.14.0 // indirect
	github.com/go-playground/universal-translator v0.18.0 // indirect
	github.com/go-playground/validator/v10 v10.11.1 // indirect
	github.com/goccy/go-json v0.9.11 // indirect
	github.com/jackc/pgpassfile v1.0.0 // indirect
	github.com/jackc/pgservicefile v0.0.0-20200714003250-2b9c44734f2b // indirect
	github.com/json-iterator/go v1.1.12 // indirect
	github.com/leodido/go-urn v1.2.1 // indirect
	github.com/lib/pq v1.10.7 // indirect
	github.com/mattn/go-isatty v0.0.16 // indirect
	github.com/modern-go/concurrent v0.0.0-20180228061459-e0a39a4cb421 // indirect
	github.com/modern-go/reflect2 v1.0.2 // indirect
	github.com/pelletier/go-toml/v2 v2.0.6 // indirect
	github.com/ugorji/go/codec v1.2.7 // indirect
	golang.org/x/crypto v0.0.0-20220829220503-c86fa9a7ed90 // indirect
	golang.org/x/net v0.4.0 // indirect
	golang.org/x/sys v0.3.0 // indirect
	golang.org/x/text v0.5.0 // indirect
	google.golang.org/protobuf v1.28.1 // indirect
	gopkg.in/yaml.v2 v2.4.0 // indirect
)
